{
  "entity-type": "documents",
  "isPaginable": true,
  "resultsCount": 34,
  "pageSize": 5,
  "maxPageSize": 1000,
  "currentPageSize": 5,
  "currentPageIndex": 0,
  "numberOfPages": 7,
  "isPreviousPageAvailable": false,
  "isNextPageAvailable": false,
  "isLastPageAvailable": false,
  "isSortable": true,
  "hasError": false,
  "errorMessage": null,
  "totalSize": 34,
  "pageIndex": 0,
  "pageCount": 7,
  "entries": [
    {
      "entity-type": "document",
      "repository": "default",
      "uid": "3dd87292-1345-4ad8-acb5-4e74c26bf893",
      "path": "/default-domain/workspaces/MyWorkspace/MyFile",
      "type": "Note",
      "state": "project",
      "parentRef": "512c5555-6dce-4b88-81f1-12ddc8ac5de8",
      "isCheckedOut": true,
      "changeToken": "1444731706120",
      "title": "myfile.txt",
      "lastModified": "2015-10-13T10:21:46.12Z",
      "properties": {
        "common:size": null,
        "common:icon-expanded": null,
        "common:icon": "/icons/domain.gif",
        "domain:display_type": false,
        "domain:content_roots": [],
        "dc:description": null,
        "dc:language": null,
        "dc:coverage": null,
        "dc:valid": null,
        "dc:creator": "system",
        "dc:modified": "2015-10-13T10:21:46.12Z",
        "dc:lastContributor": "system",
        "dc:rights": null,
        "dc:expired": null,
        "dc:format": null,
        "dc:created": "2015-10-13T10:21:46.12Z",
        "dc:title": "myfile.txt",
        "dc:issued": null,
        "dc:nature": null,
        "dc:subjects": [],
        "dc:contributors": [
          "system"
        ],
        "dc:source": null,
        "dc:publisher": null,
        "custom:complex": {
          "birthday": "1979-01-01T00:00:00.00Z",
          "name": "Guin",
          "height": 1.456
        },
        "custom:related": "69d953ad-1975-453a-8328-ab9ee1830fe4"
      },
      "facets": [
        "Folderish",
        "SuperSpace",
        "NotCollectionMember"
      ]
    },
    {
      "entity-type": "document",
      "repository": "default",
      "uid": "65a31335-f1fd-42fa-81e2-50a108a0f040",
      "path": "/default-domain/workspaces/MyWorkspace/MyNote",
      "type": "Note",
      "state": "project",
      "parentRef": "bdfcd2fc-55e3-42c6-88c2-85f598a90fde",
      "isCheckedOut": true,
      "changeToken": "1444731796764",
      "title": "MyNote",
      "lastModified": "2015-10-13T10:23:16.76Z",
      "properties": {
        "note:note": "<p>Hello World</p>",
        "note:mime_type": "text/html",
        "uid:uid": null,
        "uid:major_version": 0,
        "uid:minor_version": 0,
        "common:size": null,
        "common:icon-expanded": null,
        "common:icon": "/icons/note.gif",
        "files:files": [],
        "dc:description": "Some note",
        "dc:language": null,
        "dc:coverage": null,
        "dc:valid": null,
        "dc:creator": "Administrator",
        "dc:modified": "2015-10-13T10:23:16.76Z",
        "dc:lastContributor": "Administrator",
        "dc:rights": null,
        "dc:expired": null,
        "dc:format": null,
        "dc:created": "2015-10-13T10:23:16.76Z",
        "dc:title": "MyNote",
        "dc:issued": null,
        "dc:nature": null,
        "dc:subjects": [],
        "dc:contributors": [
          "Administrator"
        ],
        "dc:source": null,
        "dc:publisher": null,
        "relatedtext:relatedtextresources": []
      },
      "facets": [
        "Versionable",
        "Publishable",
        "Commentable",
        "HasRelatedText"
      ]
    },
    {
      "entity-type": "document",
      "repository": "default",
      "uid": "bc7b4e34-b002-4f8f-b98c-e6aafa3be5df",
      "path": "/default-domain/workspaces/MyWorkspace/MyFile",
      "type": "File",
      "state": "project",
      "parentRef": "bdfcd2fc-55e3-42c6-88c2-85f598a90fde",
      "isCheckedOut": true,
      "changeToken": "1444812791000",
      "title": "MyFile",
      "lastModified": "2015-10-14T08:53:11.00Z",
      "properties": {
        "uid:uid": null,
        "uid:major_version": 0,
        "uid:minor_version": 0,
        "thumb:thumbnail": {
          "name": "document.png",
          "mime-type": "image/png",
          "encoding": null,
          "digestAlgorithm": "MD5",
          "digest": "29ad4ae64115d4353143b77287b263cd",
          "length": "588",
          "data": "http://127.0.0.1:8080/nuxeo/nxfile/default/bc7b4e34-b002-4f8f-b98c-e6aafa3be5df/thumbnail:thumb:thumbnail/document.png"
        },
        "file:filename": "document.txt",
        "file:content": {
          "name": "document.txt",
          "mime-type": "text/plain",
          "encoding": null,
          "digestAlgorithm": "MD5",
          "digest": "b10a8db164e0754105b7a99be72e3fe5",
          "length": "11",
          "data": "http://127.0.0.1:8080/nuxeo/nxfile/default/bc7b4e34-b002-4f8f-b98c-e6aafa3be5df/file:content/document.txt"
        },
        "common:size": 11,
        "common:icon-expanded": null,
        "common:icon": "/icons/text.png",
        "files:files": [],
        "dc:description": null,
        "dc:language": null,
        "dc:coverage": null,
        "dc:valid": null,
        "dc:creator": "Administrator",
        "dc:modified": "2015-10-14T09:07:59.85Z",
        "dc:lastContributor": "Administrator",
        "dc:rights": null,
        "dc:expired": null,
        "dc:format": null,
        "dc:created": "2015-10-14T08:53:11.83Z",
        "dc:title": "MyFile",
        "dc:issued": null,
        "dc:nature": null,
        "dc:subjects": [
          "technology/it"
        ],
        "dc:contributors": [
          "Administrator"
        ],
        "dc:source": null,
        "dc:publisher": null,
        "relatedtext:relatedtextresources": []
      },
      "facets": [
        "Versionable",
        "Publishable",
        "Commentable",
        "HasRelatedText",
        "Thumbnail",
        "Downloadable"
      ]
    },
    {
      "entity-type": "document",
      "repository": "default",
      "uid": "bdfcd2fc-55e3-42c6-88c2-85f598a90fde",
      "path": "/default-domain/workspaces/MyWorkspace",
      "type": "Workspace",
      "state": "project",
      "parentRef": "10601166-5583-4e0c-9be1-b8d665d44900",
      "isCheckedOut": true,
      "changeToken": "1444731775925",
      "title": "MyWorkspace",
      "lastModified": "2015-10-13T10:22:55.92Z",
      "properties": {
        "webc:themePerspective": null,
        "webc:useCaptcha": null,
        "webc:isWebContainer": null,
        "webc:template": null,
        "webc:themePage": "workspace",
        "webc:logo": null,
        "webc:name": null,
        "webc:email": null,
        "webc:welcomeMedia": null,
        "webc:url": null,
        "webc:baseline": null,
        "webc:theme": "sites",
        "webc:moderationType": "aposteriori",
        "webc:welcomeText": null,
        "file:filename": null,
        "file:content": null,
        "common:size": null,
        "common:icon-expanded": null,
        "common:icon": "/icons/workspace.gif",
        "files:files": [],
        "dc:description": null,
        "dc:language": null,
        "dc:coverage": null,
        "dc:valid": null,
        "dc:creator": "Administrator",
        "dc:modified": "2015-10-13T10:22:55.92Z",
        "dc:lastContributor": "Administrator",
        "dc:rights": null,
        "dc:expired": null,
        "dc:format": null,
        "dc:created": "2015-10-13T10:22:55.92Z",
        "dc:title": "MyWorkspace",
        "dc:issued": null,
        "dc:nature": null,
        "dc:subjects": [],
        "dc:contributors": [
          "Administrator"
        ],
        "dc:source": null,
        "dc:publisher": null,
        "publish:sections": []
      },
      "facets": [
        "Folderish",
        "SuperSpace"
      ]
    },
    {
      "entity-type": "document",
      "repository": "default",
      "uid": "10601166-5583-4e0c-9be1-b8d665d44900",
      "path": "/default-domain/workspaces",
      "type": "WorkspaceRoot",
      "state": "project",
      "parentRef": "0fa9d2a0-e69f-452d-87ff-0c5bd3b30d7d",
      "isCheckedOut": true,
      "changeToken": "1444731706122",
      "title": "Workspaces",
      "lastModified": "2015-10-13T10:21:46.12Z",
      "properties": {
        "common:size": null,
        "common:icon-expanded": null,
        "common:icon": "/icons/workspace.gif",
        "dc:description": null,
        "dc:language": null,
        "dc:coverage": null,
        "dc:valid": null,
        "dc:creator": "system",
        "dc:modified": "2015-10-13T10:21:46.12Z",
        "dc:lastContributor": "system",
        "dc:rights": null,
        "dc:expired": null,
        "dc:format": null,
        "dc:created": "2015-10-13T10:21:46.12Z",
        "dc:title": "Workspaces",
        "dc:issued": null,
        "dc:nature": null,
        "dc:subjects": [],
        "dc:contributors": [
          "system"
        ],
        "dc:source": null,
        "dc:publisher": null
      },
      "facets": [
        "Folderish",
        "SuperSpace",
        "NotCollectionMember"
      ]
    }
  ]
}